<svg width="17" height="17" viewBox="0 0 17 17" fill="none" xmlns="http://www.w3.org/2000/svg">
<path d="M15.075 6.08082H14.6668V4.1112C14.6668 4.09892 14.6649 4.08655 14.6634 4.07399C14.6628 3.99586 14.6377 3.91906 14.5842 3.85819L11.3064 0.114007C11.3053 0.113046 11.3044 0.112705 11.3037 0.111682C11.2842 0.0898537 11.2614 0.0716846 11.2373 0.0559958C11.2302 0.051221 11.223 0.0472213 11.2155 0.0430045C11.1947 0.0316876 11.1725 0.0221689 11.1498 0.0153167C11.1436 0.0137044 11.138 0.011162 11.1319 0.00954967C11.1071 0.00365864 11.0814 0 11.0554 0H3.00001C2.6322 0 2.33337 0.299171 2.33337 0.666679V6.08063H1.92521C1.39902 6.08063 0.972351 6.50714 0.972351 7.03352V11.9886C0.972351 12.5144 1.39902 12.9414 1.92521 12.9414H2.33337V16.3334C2.33337 16.7009 2.6322 17 3.00001 17H14C14.3675 17 14.6666 16.7009 14.6666 16.3334V12.9414H15.0749C15.6009 12.9414 16.0276 12.5147 16.0276 11.9886V7.03371C16.0277 6.50717 15.6012 6.08082 15.075 6.08082ZM3.00001 0.666679H10.722V4.07746C10.722 4.26163 10.8714 4.4108 11.0554 4.4108H14V6.08079H3.00001V0.666679ZM9.75358 9.7562C9.09863 9.52803 8.67125 9.1657 8.67125 8.59213C8.67125 7.91938 9.23276 7.40472 10.1631 7.40472C10.6074 7.40472 10.9352 7.49817 11.169 7.60356L10.9702 8.32288C10.8124 8.24704 10.5316 8.1357 10.1455 8.1357C9.75945 8.1357 9.5723 8.31125 9.5723 8.51601C9.5723 8.76762 9.79464 8.87865 10.3034 9.07166C10.9994 9.32916 11.327 9.69177 11.327 10.2474C11.327 10.9085 10.818 11.4701 9.73585 11.4701C9.28553 11.4701 8.841 11.3533 8.61869 11.2302L8.79986 10.4932C9.03978 10.616 9.4084 10.739 9.78847 10.739C10.1983 10.739 10.4144 10.5694 10.4144 10.3119C10.4146 10.0664 10.2274 9.92577 9.75358 9.7562ZM8.24489 10.6628V11.4118H5.78185V7.46865H6.6772V10.6628H8.24489ZM2.92188 11.4118H1.9041L3.04472 9.41647L1.94487 7.4685H2.9687L3.31363 8.18813C3.43065 8.42799 3.51846 8.62078 3.61215 8.84343H3.62353C3.71739 8.59182 3.79335 8.41633 3.8925 8.18813L4.226 7.4685H5.24381L4.13233 9.39288L5.30248 11.4114H4.27303L3.91601 10.6976C3.77 10.4231 3.67633 10.2181 3.56515 9.98995H3.55352C3.47151 10.2181 3.3723 10.4231 3.24933 10.6976L2.92188 11.4118ZM14 16.1528H3.00001V12.9414H14V16.1528H14ZM14.006 11.4118L13.6491 10.698C13.5029 10.4232 13.4093 10.2185 13.2982 9.99026H13.2868C13.2048 10.2185 13.1052 10.4232 12.9821 10.698L12.655 11.4118H11.6369L12.7775 9.41647L11.6777 7.4685H12.7015L13.0469 8.18813C13.1638 8.42799 13.2513 8.62078 13.3451 8.84343H13.3568C13.4502 8.59182 13.526 8.41633 13.6256 8.18813L13.959 7.4685H14.9771L13.8656 9.39288L15.0355 11.4114H14.006V11.4118Z" fill="#5795F2"/>
</svg>
