<svg width="61" height="121" viewBox="0 0 61 121" fill="none" xmlns="http://www.w3.org/2000/svg">
<path d="M55.9255 111.28L59.4255 119.28L50.9255 119.78" stroke="#2B3D57"/>
<path d="M55.6947 117.224C55.9397 117.351 56.2416 117.256 56.369 117.011C56.4965 116.766 56.4013 116.464 56.1563 116.337L55.6947 117.224ZM6.44508 0.14177C6.34968 0.472696 6.25541 0.802921 6.16227 1.13245L7.12457 1.40443C7.21723 1.07659 7.31102 0.748041 7.40595 0.418777L6.44508 0.14177ZM5.09903 5.05331C4.9264 5.71856 4.75854 6.38091 4.59548 7.04036L5.56624 7.28041C5.72837 6.62472 5.89529 5.96609 6.06697 5.30449L5.09903 5.05331ZM3.66699 10.9964C3.51832 11.6664 3.37478 12.3333 3.23636 12.9972L4.21531 13.2013C4.35284 12.5416 4.49549 11.8789 4.64324 11.213L3.66699 10.9964ZM2.45845 16.9939C2.33731 17.665 2.22161 18.333 2.11135 18.9977L3.09788 19.1614C3.20735 18.5013 3.32224 17.8381 3.44255 17.1716L2.45845 16.9939ZM1.50407 23.0311C1.41322 23.7042 1.32819 24.374 1.24898 25.0405L2.24199 25.1585C2.32057 24.4973 2.40494 23.8328 2.49508 23.1649L1.50407 23.0311ZM0.835191 29.0978C0.777167 29.7825 0.725541 30.4635 0.68032 31.141L1.6781 31.2076C1.72292 30.5361 1.77409 29.861 1.83162 29.1823L0.835191 29.0978ZM0.484448 35.213C0.464601 35.8962 0.451558 36.5756 0.445323 37.2515L1.44528 37.2607C1.45145 36.5916 1.46437 35.9187 1.48403 35.242L0.484448 35.213ZM0.491908 41.3329C0.514102 42.0153 0.543562 42.6938 0.580294 43.3686L1.57882 43.3142C1.54248 42.6468 1.51334 41.9755 1.49138 41.3004L0.491908 41.3329ZM0.894664 47.4384C0.963232 48.12 1.03958 48.7977 1.12372 49.4714L2.11601 49.3475C2.03287 48.6818 1.95742 48.012 1.88964 47.3383L0.894664 47.4384ZM1.72974 53.5101C1.84791 54.1822 1.97421 54.8502 2.10867 55.5142L3.08877 55.3157C2.95604 54.6602 2.83133 54.0007 2.71464 53.337L1.72974 53.5101ZM3.0252 59.4965C3.19625 60.1583 3.37581 60.8159 3.56389 61.4694L4.52488 61.1928C4.33933 60.5481 4.16216 59.8993 3.99338 59.2463L3.0252 59.4965ZM4.80229 65.3638C5.02701 66.0078 5.26043 66.6476 5.50256 67.2834L6.43709 66.9275C6.1983 66.3005 5.96809 65.6695 5.74646 65.0343L4.80229 65.3638ZM7.06475 71.0605C7.34294 71.6827 7.62992 72.3007 7.92568 72.9148L8.82663 72.4809C8.53496 71.8753 8.25197 71.2658 7.97763 70.6523L7.06475 71.0605ZM9.8026 76.5463C10.1316 77.1412 10.4692 77.7322 10.8155 78.3194L11.6769 77.8114C11.3352 77.2321 11.0022 76.6491 10.6777 76.0624L9.8026 76.5463ZM12.9869 81.7807C13.3642 82.3473 13.75 82.9103 14.1443 83.4696L14.9616 82.8935C14.5724 82.3413 14.1916 81.7857 13.8193 81.2265L12.9869 81.7807ZM16.5848 86.7472C17.0025 87.2791 17.4282 87.8075 17.862 88.3326L18.6329 87.6957C18.2043 87.1769 17.7838 86.6549 17.3713 86.1297L16.5848 86.7472ZM20.538 91.4165C20.9959 91.9196 21.4617 92.4195 21.9352 92.9163L22.6591 92.2263C22.1907 91.735 21.7302 91.2407 21.2775 90.7434L20.538 91.4165ZM24.8159 95.8072C25.3019 96.2742 25.7951 96.7384 26.2956 97.1997L26.9734 96.4644C26.4779 96.0077 25.9897 95.5483 25.5088 95.0862L24.8159 95.8072ZM29.3502 99.9042C29.8663 100.343 30.3894 100.78 30.9193 101.214L31.5529 100.441C31.0278 100.01 30.5096 99.5778 29.9983 99.1427L29.3502 99.9042ZM34.1177 103.739C34.6559 104.149 35.2006 104.556 35.7518 104.961L36.344 104.156C35.7974 103.754 35.2572 103.35 34.7235 102.943L34.1177 103.739ZM39.0788 107.325C39.6324 107.706 40.1919 108.084 40.7574 108.46L41.3113 107.627C40.7499 107.254 40.1945 106.878 39.6451 106.501L39.0788 107.325ZM44.1825 110.668C44.756 111.027 45.3352 111.383 45.92 111.738L46.4386 110.883C45.8576 110.531 45.2822 110.176 44.7126 109.82L44.1825 110.668ZM49.4251 113.803C50.0155 114.141 50.6113 114.477 51.2124 114.812L51.6987 113.938C51.101 113.606 50.5088 113.271 49.9219 112.935L49.4251 113.803ZM54.783 116.746C55.0856 116.906 55.3895 117.065 55.6947 117.224L56.1563 116.337C55.8528 116.179 55.5505 116.02 55.2495 115.862L54.783 116.746Z" fill="#2B3D57"/>
</svg>
